Lab2/simulation/qsim/Lab2.msim.vcd
$comment
	File created using the following command:
		vcd file Lab2.msim.vcd -direction
$end
$date
	Sun Sep 22 23:00:26 2024
$end
$version
	ModelSim Version 10.1d
$end
$timescale
	1ps
$end
$scope module Lab2_vlg_vec_tst $end
$var reg 1 ! clk $end
$var reg 10 " duty_ctrl [9:0] $end
$var reg 2 # frec_ctrl [1:0] $end
$var reg 1 $ reset $end
$var wire 1 % pwm_out $end
$var wire 1 & sampler $end
$scope module i1 $end
$var wire 1 ' gnd $end
$var wire 1 ( vcc $end
$var wire 1 ) unknown $end
$var tri1 1 * devclrn $end
$var tri1 1 + devpor $end
$var tri1 1 , devoe $end
$var wire 1 - c[3]~2_combout $end
$var wire 1 . c[5]~6_combout $end
$var wire 1 / c[7]~11 $end
$var wire 1 0 c[8]~12_combout $end
$var wire 1 1 c[8]~13 $end
$var wire 1 2 c[9]~14_combout $end
$var wire 1 3 b[1]~0_combout $end
$var wire 1 4 b[6]~10_combout $end
$var wire 1 5 b[7]~13 $end
$var wire 1 6 b[8]~14_combout $end
$var wire 1 7 b[8]~15 $end
$var wire 1 8 b[9]~16_combout $end
$var wire 1 9 a[7]~15 $end
$var wire 1 : a[8]~16_combout $end
$var wire 1 ; a[8]~17 $end
$var wire 1 < a[9]~18_combout $end
$var wire 1 = d[7]~9 $end
$var wire 1 > d[8]~10_combout $end
$var wire 1 ? d[8]~11 $end
$var wire 1 @ d[9]~12_combout $end
$var wire 1 A Equal0~1_combout $end
$var wire 1 B Mux0~0_combout $end
$var wire 1 C Mux0~1_combout $end
$var wire 1 D Mux1~0_combout $end
$var wire 1 E Mux1~1_combout $end
$var wire 1 F clk~combout $end
$var wire 1 G clk~clkctrl_outclk $end
$var wire 1 H Equal0~0_combout $end
$var wire 1 I Equal0~2_combout $end
$var wire 1 J a[0]~1 $end
$var wire 1 K a[1]~2_combout $end
$var wire 1 L r_reg[1]~0_combout $end
$var wire 1 M r_reg[1]~1_combout $end
$var wire 1 N reset~combout $end
$var wire 1 O b[1]~1 $end
$var wire 1 P b[2]~2_combout $end
$var wire 1 Q c[2]~0_combout $end
$var wire 1 R a[1]~3 $end
$var wire 1 S a[2]~4_combout $end
$var wire 1 T Mux7~0_combout $end
$var wire 1 U Mux7~1_combout $end
$var wire 1 V b[2]~3 $end
$var wire 1 W b[3]~5 $end
$var wire 1 X b[4]~6_combout $end
$var wire 1 Y d[3]~0_combout $end
$var wire 1 Z b[3]~4_combout $end
$var wire 1 [ a[2]~5 $end
$var wire 1 \ a[3]~6_combout $end
$var wire 1 ] Mux6~0_combout $end
$var wire 1 ^ Mux6~1_combout $end
$var wire 1 _ d[3]~1 $end
$var wire 1 ` d[4]~2_combout $end
$var wire 1 a a[3]~7 $end
$var wire 1 b a[4]~8_combout $end
$var wire 1 c c[2]~1 $end
$var wire 1 d c[3]~3 $end
$var wire 1 e c[4]~4_combout $end
$var wire 1 f Mux5~0_combout $end
$var wire 1 g Mux5~1_combout $end
$var wire 1 h d[4]~3 $end
$var wire 1 i d[5]~4_combout $end
$var wire 1 j a[4]~9 $end
$var wire 1 k a[5]~10_combout $end
$var wire 1 l b[4]~7 $end
$var wire 1 m b[5]~8_combout $end
$var wire 1 n Mux4~0_combout $end
$var wire 1 o Mux4~1_combout $end
$var wire 1 p d[5]~5 $end
$var wire 1 q d[6]~6_combout $end
$var wire 1 r c[4]~5 $end
$var wire 1 s c[5]~7 $end
$var wire 1 t c[6]~8_combout $end
$var wire 1 u a[5]~11 $end
$var wire 1 v a[6]~12_combout $end
$var wire 1 w Mux3~0_combout $end
$var wire 1 x Mux3~1_combout $end
$var wire 1 y c[6]~9 $end
$var wire 1 z c[7]~10_combout $end
$var wire 1 { d[6]~7 $end
$var wire 1 | d[7]~8_combout $end
$var wire 1 } a[6]~13 $end
$var wire 1 ~ a[7]~14_combout $end
$var wire 1 !! b[5]~9 $end
$var wire 1 "! b[6]~11 $end
$var wire 1 #! b[7]~12_combout $end
$var wire 1 $! Mux2~0_combout $end
$var wire 1 %! Mux2~1_combout $end
$var wire 1 &! a[0]~0_combout $end
$var wire 1 '! r_reg[0]~2_combout $end
$var wire 1 (! LessThan0~1_cout $end
$var wire 1 )! LessThan0~3_cout $end
$var wire 1 *! LessThan0~5_cout $end
$var wire 1 +! LessThan0~7_cout $end
$var wire 1 ,! LessThan0~9_cout $end
$var wire 1 -! LessThan0~11_cout $end
$var wire 1 .! LessThan0~13_cout $end
$var wire 1 /! LessThan0~15_cout $end
$var wire 1 0! LessThan0~17_cout $end
$var wire 1 1! LessThan0~18_combout $end
$var wire 1 2! buf_next~combout $end
$var wire 1 3! buf_reg~regout $end
$var wire 1 4! duty_ctrl~combout [9] $end
$var wire 1 5! duty_ctrl~combout [8] $end
$var wire 1 6! duty_ctrl~combout [7] $end
$var wire 1 7! duty_ctrl~combout [6] $end
$var wire 1 8! duty_ctrl~combout [5] $end
$var wire 1 9! duty_ctrl~combout [4] $end
$var wire 1 :! duty_ctrl~combout [3] $end
$var wire 1 ;! duty_ctrl~combout [2] $end
$var wire 1 <! duty_ctrl~combout [1] $end
$var wire 1 =! duty_ctrl~combout [0] $end
$var wire 1 >! r_reg [9] $end
$var wire 1 ?! r_reg [8] $end
$var wire 1 @! r_reg [7] $end
$var wire 1 A! r_reg [6] $end
$var wire 1 B! r_reg [5] $end
$var wire 1 C! r_reg [4] $end
$var wire 1 D! r_reg [3] $end
$var wire 1 E! r_reg [2] $end
$var wire 1 F! r_reg [1] $end
$var wire 1 G! r_reg [0] $end
$var wire 1 H! frec_ctrl~combout [1] $end
$var wire 1 I! frec_ctrl~combout [0] $end
$upscope $end
$upscope $end
$enddefinitions $end
#0
$dumpvars
0!
b111111111 "
b10 #
1$
0B
0C
0D
0E
0F
0G
0H
0I
0J
0K
0L
0M
1N
0O
0P
1Q
1R
0S
1T
1U
1V
0W
0X
1Y
0Z
0[
0\
0]
0^
0_
0`
1a
0b
0c
1d
0e
0f
0g
1h
0i
0j
0k
1l
0m
0n
0o
0p
0q
0r
1s
0t
1u
0v
0w
0x
0y
0z
1{
0|
0}
0%
x&
0'
1(
x)
1*
1+
1,
0-
0.
1/
00
01
02
13
04
05
06
17
08
19
0:
0;
0<
0=
0>
1?
0@
0A
0~
0!!
1"!
0#!
0$!
0%!
1&!
0'!
1(!
0)!
1*!
0+!
1,!
0-!
1.!
0/!
10!
11!
12!
03!
1=!
1<!
1;!
1:!
19!
18!
17!
16!
15!
04!
0G!
0F!
0E!
0D!
0C!
0B!
0A!
0@!
0?!
0>!
0I!
1H!
$end
#500
1!
1F
1G
0&
13!
1E!
1S
1c
0Q
1P
1%
0T
1-
0U
1^
#1000
0!
0F
0G
1&
#1500
1!
1F
1G
0&
1D!
0E!
1\
1_
0Y
1Z
0d
0-
0S
0c
1Q
0P
1`
0^
1e
1T
1d
1-
1f
1U
0e
1^
1g
0f
0g
#2000
0!
0F
0G
1&
#2500
1!
1F
1G
0&
1E!
1S
1c
0Q
1P
0T
0d
0-
0U
1e
0^
1f
1g
#3000
0!
0F
0G
1&
#3500
1!
1F
1G
0&
1C!
0D!
0E!
1r
0e
1b
0h
0`
1X
0\
0_
1Y
0Z
1d
1-
0S
0c
1Q
0P
1.
0f
1i
1h
1`
1^
0r
1e
1T
0-
1o
0g
0i
0.
1f
1U
0^
0o
1g
#4000
0!
0F
0G
1&
#4500
1!
1F
1G
0&
1E!
1S
1c
0Q
1P
0T
1-
0U
1^
#5000
0!
0F
0G
1&
#5500
1!
1F
1G
0&
1D!
0E!
1\
1_
0Y
1Z
0d
0-
0S
0c
1Q
0P
0h
0`
0^
1r
0e
1T
1d
1-
1i
1.
0f
1U
0r
1e
1^
1o
0g
0.
1f
0o
1g
#6000
0!
0F
0G
1&
#6500
1!
1F
1G
0&
1E!
1S
1c
0Q
1P
0T
0d
0-
0U
1r
0e
0^
1.
0f
1o
0g
#7000
0!
0F
0G
1&
#7500
1!
1F
1G
0&
1B!
0C!
0D!
0E!
1m
1k
1p
0i
0s
0.
0r
1e
0b
1h
1`
0X
0\
0_
1Y
0Z
1d
1-
0S
0c
1Q
0P
1q
0o
1t
1s
1.
1f
0p
1i
0`
1^
0e
1T
0-
1w
0t
1o
1g
0q
0f
1U
0^
1x
0w
0g
0x
#8000
0!
0F
0G
1&
#8500
1!
1F
1G
0&
1E!
1S
1c
0Q
1P
0T
1-
0U
1^
#9000
0!
0F
0G
1&
#9500
1!
1F
1G
0&
1D!
0E!
1\
1_
0Y
1Z
0d
0-
0S
0c
1Q
0P
1`
0^
1e
1T
1d
1-
1f
1U
0e
1^
1g
0f
0g
#10000
0!
0F
0G
1&
#10500
1!
1F
1G
0&
1E!
1S
1c
0Q
1P
0T
0d
0-
0U
1e
0^
1f
1g
#11000
0!
0F
0G
1&
#11500
1!
1F
1G
0&
1C!
0D!
0E!
1r
0e
1b
0h
0`
1X
0\
0_
1Y
0Z
1d
1-
0S
0c
1Q
0P
0s
0.
0f
1p
0i
1h
1`
1^
0r
1e
1T
0-
1t
0o
0g
1q
0p
1i
1s
1.
1f
1U
0^
1w
0q
1o
0t
1g
1x
0w
0x
#12000
0!
0F
0G
1&
#12500
1!
1F
1G
0&
1E!
1S
1c
0Q
1P
0T
1-
0U
1^
#13000
0!
0F
0G
1&
#13500
1!
1F
1G
0&
1D!
0E!
1\
1_
0Y
1Z
0d
0-
0S
0c
1Q
0P
0h
0`
0^
1r
0e
1T
1d
1-
1p
0i
0s
0.
0f
1U
0r
1e
1^
1q
0o
1t
0g
1s
1.
1f
1w
0t
1o
1g
1x
0w
0x
#14000
0!
0F
0G
1&
#14500
1!
1F
1G
0&
1E!
1S
1c
0Q
1P
0T
0d
0-
0U
1r
0e
0^
0s
0.
0f
1t
0o
0g
1w
1x
#15000
0!
0F
0G
1&
#15500
1!
1F
1G
0&
1A!
0B!
0C!
0D!
0E!
1v
1y
0t
0{
0q
14
0m
0k
0p
1i
1s
1.
0r
1e
0b
1h
1`
0X
0\
0_
1Y
0Z
1d
1-
0S
0c
1Q
0P
0w
1z
1|
1{
1q
1o
0y
1t
0.
1f
0i
0`
1^
0e
1T
0-
0x
1%!
0|
0z
1w
0o
1g
0f
1U
0^
0%!
1x
0g
#16000
0!
0F
0G
1&
#16500
1!
1F
1G
0&
1E!
1S
1c
0Q
1P
0T
1-
0U
1^
#17000
0!
0F
0G
1&
#17500
1!
1F
1G
0&
1D!
0E!
1\
1_
0Y
1Z
0d
0-
0S
0c
1Q
0P
1`
0^
1e
1T
1d
1-
1f
1U
0e
1^
1g
0f
0g
#18000
0!
0F
0G
1&
#18500
1!
1F
1G
0&
1E!
1S
1c
0Q
1P
0T
0d
0-
0U
1e
0^
1f
1g
#19000
0!
0F
0G
1&
#19500
1!
1F
1G
0&
1C!
0D!
0E!
1r
0e
1b
0h
0`
1X
0\
0_
1Y
0Z
1d
1-
0S
0c
1Q
0P
1.
0f
1i
1h
1`
1^
0r
1e
1T
0-
1o
0g
0i
0.
1f
1U
0^
0o
1g
#20000
0!
0F
0G
1&
#20500
1!
1F
1G
0&
1E!
1S
1c
0Q
1P
0T
1-
0U
1^
#21000
0!
0F
0G
1&
#21500
1!
1F
1G
0&
1D!
0E!
1\
1_
0Y
1Z
0d
0-
0S
0c
1Q
0P
0h
0`
0^
1r
0e
1T
1d
1-
1i
1.
0f
1U
0r
1e
1^
1o
0g
0.
1f
0o
1g
#22000
0!
0F
0G
1&
#22500
1!
1F
1G
0&
1E!
1S
1c
0Q
1P
0T
0d
0-
0U
1r
0e
0^
1.
0f
1o
0g
#23000
0!
0F
0G
1&
#23500
1!
1F
1G
0&
1B!
0C!
0D!
0E!
1m
1k
1p
0i
0s
0.
0r
1e
0b
1h
1`
0X
0\
0_
1Y
0Z
1d
1-
0S
0c
1Q
0P
0{
0q
0o
1y
0t
1s
1.
1f
0p
1i
0`
1^
0e
1T
0-
1|
1z
0w
0y
1t
1o
1g
1{
1q
0f
1U
0^
1%!
0x
0z
1w
0|
0g
0%!
1x
#24000
0!
0F
0G
1&
#24500
1!
1F
1G
0&
1E!
1S
1c
0Q
1P
0T
1-
0U
1^
#25000
0!
0F
0G
1&
#25500
1!
1F
1G
0&
1D!
0E!
1\
1_
0Y
1Z
0d
0-
0S
0c
1Q
0P
1`
0^
1e
1T
1d
1-
1f
1U
0e
1^
1g
0f
0g
#26000
0!
0F
0G
1&
#26500
1!
1F
1G
0&
1E!
1S
1c
0Q
1P
0T
0d
0-
0U
1e
0^
1f
1g
#27000
0!
0F
0G
1&
#27500
1!
1F
1G
0&
1C!
0D!
0E!
1r
0e
1b
0h
0`
1X
0\
0_
1Y
0Z
1d
1-
0S
0c
1Q
0P
0s
0.
0f
1p
0i
1h
1`
1^
0r
1e
1T
0-
1y
0t
0o
0g
0{
0q
0p
1i
1s
1.
1f
1U
0^
1z
0w
1|
1{
1q
1o
0y
1t
1g
1%!
0x
0|
0z
1w
0%!
1x
#28000
0!
0F
0G
1&
#28500
1!
1F
1G
0&
1E!
1S
1c
0Q
1P
0T
1-
0U
1^
#29000
0!
0F
0G
1&
#29500
1!
1F
1G
0&
1D!
0E!
1\
1_
0Y
1Z
0d
0-
0S
0c
1Q
0P
0h
0`
0^
1r
0e
1T
1d
1-
1p
0i
0s
0.
0f
1U
0r
1e
1^
0{
0q
0o
1y
0t
0g
1s
1.
1f
1|
1z
0w
0y
1t
1o
1g
1%!
0x
0z
1w
0%!
1x
#30000
0!
0F
0G
1&
#30500
1!
1F
1G
0&
1E!
1S
1c
0Q
1P
0T
0d
0-
0U
1r
0e
0^
0s
0.
0f
1y
0t
0o
0g
1z
0w
1%!
0x
#31000
0!
0F
0G
1&
#31500
1!
1F
1G
0&
1@!
0A!
0B!
0C!
0D!
0E!
1=
0|
1~
1#!
0/
0z
0v
0y
1t
1{
1q
04
0m
0k
0p
1i
1s
1.
0r
1e
0b
1h
1`
0X
0\
0_
1Y
0Z
1d
1-
0S
0c
1Q
0P
1>
0%!
10
1w
1/
1z
0=
1|
0q
1o
0t
0.
1f
0i
0`
1^
0e
1T
0-
1D
1x
00
1%!
0>
0w
0o
1g
0f
1U
0^
1E
0D
0x
0g
0E
#32000
0!
0F
0G
1&
#32500
1!
1F
1G
0&
1E!
1S
1c
0Q
1P
0T
1-
0U
1^
#33000
0!
0F
0G
1&
#33500
1!
1F
1G
0&
1D!
0E!
1\
1_
0Y
1Z
0d
0-
0S
0c
1Q
0P
1`
0^
1e
1T
1d
1-
1f
1U
0e
1^
1g
0f
0g
#34000
0!
0F
0G
1&
#34500
1!
1F
1G
0&
1E!
1S
1c
0Q
1P
0T
0d
0-
0U
1e
0^
1f
1g
#35000
0!
0F
0G
1&
#35500
1!
1F
1G
0&
1C!
0D!
0E!
1r
0e
1b
0h
0`
1X
0\
0_
1Y
0Z
1d
1-
0S
0c
1Q
0P
1.
0f
1i
1h
1`
1^
0r
1e
1T
0-
1o
0g
0i
0.
1f
1U
0^
0o
1g
#36000
0!
0F
0G
1&
#36500
1!
1F
1G
0&
1E!
1S
1c
0Q
1P
0T
1-
0U
1^
#37000
0!
0F
0G
1&
#37500
1!
1F
1G
0&
1D!
0E!
1\
1_
0Y
1Z
0d
0-
0S
0c
1Q
0P
0h
0`
0^
1r
0e
1T
1d
1-
1i
1.
0f
1U
0r
1e
1^
1o
0g
0.
1f
0o
1g
#38000
0!
0F
0G
1&
#38500
1!
1F
1G
0&
1E!
1S
1c
0Q
1P
0T
0d
0-
0U
1r
0e
0^
1.
0f
1o
0g
#39000
0!
0F
0G
1&
#39500
1!
1F
1G
0&
1B!
0C!
0D!
0E!
1m
1k
1p
0i
0s
0.
0r
1e
0b
1h
1`
0X
0\
0_
1Y
0Z
1d
1-
0S
0c
1Q
0P
1q
0o
1t
1s
1.
1f
0p
1i
0`
1^
0e
1T
0-
1w
0t
1o
1g
0q
0f
1U
0^
1x
0w
0g
0x
#40000
0!
0F
0G
1&
#40500
1!
1F
1G
0&
1E!
1S
1c
0Q
1P
0T
1-
0U
1^
#41000
0!
0F
0G
1&
#41500
1!
1F
1G
0&
1D!
0E!
1\
1_
0Y
1Z
0d
0-
0S
0c
1Q
0P
1`
0^
1e
1T
1d
1-
1f
1U
0e
1^
1g
0f
0g
#42000
0!
0F
0G
1&
#42500
1!
1F
1G
0&
1E!
1S
1c
0Q
1P
0T
0d
0-
0U
1e
0^
1f
1g
#43000
0!
0F
0G
1&
#43500
1!
1F
1G
0&
1C!
0D!
0E!
1r
0e
1b
0h
0`
1X
0\
0_
1Y
0Z
1d
1-
0S
0c
1Q
0P
0s
0.
0f
1p
0i
1h
1`
1^
0r
1e
1T
0-
1t
0o
0g
1q
0p
1i
1s
1.
1f
1U
0^
1w
0q
1o
0t
1g
1x
0w
0x
#44000
0!
0F
0G
1&
#44500
1!
1F
1G
0&
1E!
1S
1c
0Q
1P
0T
1-
0U
1^
#45000
0!
0F
0G
1&
#45500
1!
1F
1G
0&
1D!
0E!
1\
1_
0Y
1Z
0d
0-
0S
0c
1Q
0P
0h
0`
0^
1r
0e
1T
1d
1-
1p
0i
0s
0.
0f
1U
0r
1e
1^
1q
0o
1t
0g
1s
1.
1f
1w
0t
1o
1g
1x
0w
0x
#46000
0!
0F
0G
1&
#46500
1!
1F
1G
0&
1E!
1S
1c
0Q
1P
0T
0d
0-
0U
1r
0e
0^
0s
0.
0f
1t
0o
0g
1w
1x
#47000
0!
0F
0G
1&
#47500
1!
1F
1G
0&
1A!
0B!
0C!
0D!
0E!
1v
1y
0t
0{
0q
14
0m
0k
0p
1i
1s
1.
0r
1e
0b
1h
1`
0X
0\
0_
1Y
0Z
1d
1-
0S
0c
1Q
0P
0w
0/
0z
1=
0|
1{
1q
1o
0y
1t
0.
1f
0i
0`
1^
0e
1T
0-
0x
10
0%!
1>
0=
1|
1/
1z
1w
0o
1g
0f
1U
0^
1D
0>
1%!
00
1x
0g
1E
0D
0E
#48000
0!
0F
0G
1&
#48500
1!
1F
1G
0&
1E!
1S
1c
0Q
1P
0T
1-
0U
1^
#49000
0!
0F
0G
1&
#49500
1!
1F
1G
0&
1D!
0E!
1\
1_
0Y
1Z
0d
0-
0S
0c
1Q
0P
1`
0^
1e
1T
1d
1-
1f
1U
0e
1^
1g
0f
0g
#50000
0!
0F
0G
1&
#50500
1!
1F
1G
0&
1E!
1S
1c
0Q
1P
0T
0d
0-
0U
1e
0^
1f
1g
#51000
0!
0F
0G
1&
#51500
1!
1F
1G
0&
1C!
0D!
0E!
1r
0e
1b
0h
0`
1X
0\
0_
1Y
0Z
1d
1-
0S
0c
1Q
0P
1.
0f
1i
1h
1`
1^
0r
1e
1T
0-
1o
0g
0i
0.
1f
1U
0^
0o
1g
#52000
0!
0F
0G
1&
#52500
1!
1F
1G
0&
1E!
1S
1c
0Q
1P
0T
1-
0U
1^
#53000
0!
0F
0G
1&
#53500
1!
1F
1G
0&
1D!
0E!
1\
1_
0Y
1Z
0d
0-
0S
0c
1Q
0P
0h
0`
0^
1r
0e
1T
1d
1-
1i
1.
0f
1U
0r
1e
1^
1o
0g
0.
1f
0o
1g
#54000
0!
0F
0G
1&
#54500
1!
1F
1G
0&
1E!
1S
1c
0Q
1P
0T
0d
0-
0U
1r
0e
0^
1.
0f
1o
0g
#55000
0!
0F
0G
1&
#55500
1!
1F
1G
0&
1B!
0C!
0D!
0E!
1m
1k
1p
0i
0s
0.
0r
1e
0b
1h
1`
0X
0\
0_
1Y
0Z
1d
1-
0S
0c
1Q
0P
0{
0q
0o
1y
0t
1s
1.
1f
0p
1i
0`
1^
0e
1T
0-
1=
0|
0/
0z
0w
0y
1t
1o
1g
1{
1q
0f
1U
0^
1>
0%!
10
0x
1/
1z
1w
0=
1|
0g
1D
00
1%!
1x
0>
1E
0D
0E
#56000
0!
0F
0G
1&
#56500
1!
1F
1G
0&
1E!
1S
1c
0Q
1P
0T
1-
0U
1^
#57000
0!
0F
0G
1&
#57500
1!
1F
1G
0&
1D!
0E!
1\
1_
0Y
1Z
0d
0-
0S
0c
1Q
0P
1`
0^
1e
1T
1d
1-
1f
1U
0e
1^
1g
0f
0g
#58000
0!
0F
0G
1&
#58500
1!
1F
1G
0&
1E!
1S
1c
0Q
1P
0T
0d
0-
0U
1e
0^
1f
1g
#59000
0!
0F
0G
1&
#59500
1!
1F
1G
0&
1C!
0D!
0E!
1r
0e
1b
0h
0`
1X
0\
0_
1Y
0Z
1d
1-
0S
0c
1Q
0P
0s
0.
0f
1p
0i
1h
1`
1^
0r
1e
1T
0-
1y
0t
0o
0g
0{
0q
0p
1i
1s
1.
1f
1U
0^
0/
0z
0w
1=
0|
1{
1q
1o
0y
1t
1g
10
0%!
0x
1>
0=
1|
1/
1z
1w
1D
0>
1%!
00
1x
1E
0D
0E
#60000
0!
0F
0G
1&
#60500
1!
1F
1G
0&
1E!
1S
1c
0Q
1P
0T
1-
0U
1^
#61000
0!
0F
0G
1&
#61500
1!
1F
1G
0&
1D!
0E!
1\
1_
0Y
1Z
0d
0-
0S
0c
1Q
0P
0h
0`
0^
1r
0e
1T
1d
1-
1p
0i
0s
0.
0f
1U
0r
1e
1^
0{
0q
0o
1y
0t
0g
1s
1.
1f
1=
0|
0/
0z
0w
0y
1t
1o
1g
1>
0%!
10
0x
1/
1z
1w
1D
00
1%!
1x
1E
0D
0E
#62000
0!
0F
0G
1&
#62500
1!
1F
1G
0&
1E!
1S
1c
0Q
1P
0T
0d
0-
0U
1r
0e
0^
0s
0.
0f
1y
0t
0o
0g
0/
0z
0w
10
0%!
0x
1D
1E
#63000
0!
0F
0G
1&
#63500
1!
1F
1G
0&
0@!
0A!
0B!
0C!
0D!
0E!
1?!
0=
1|
0~
0#!
1/
1z
0v
0y
1t
1{
1q
04
0m
0k
0p
1i
1s
1.
0r
1e
0b
1h
1`
0X
0\
0_
1Y
0Z
1d
1-
0S
0c
1Q
0P
0?
0>
1:
16
11
00
1?
1>
1%!
01
10
1w
0z
0|
0q
1o
0t
0.
1f
0i
0`
1^
0e
1T
0-
1@
0D
12
0@
0E
02
1D
1x
0%!
0w
0o
1g
0f
1U
0^
1C
0C
1E
0x
0g
#64000
0!
0F
0G
1&
#64500
1!
1F
1G
0&
1E!
1S
1c
0Q
1P
0T
1-
0U
1^
#65000
0!
0F
0G
1&
#65500
1!
1F
1G
0&
1D!
0E!
1\
1_
0Y
1Z
0d
0-
0S
0c
1Q
0P
1`
0^
1e
1T
1d
1-
1f
1U
0e
1^
1g
0f
0g
#66000
0!
0F
0G
1&
#66500
1!
1F
1G
0&
1E!
1S
1c
0Q
1P
0T
0d
0-
0U
1e
0^
1f
1g
#67000
0!
0F
0G
1&
#67500
1!
1F
1G
0&
1C!
0D!
0E!
1r
0e
1b
0h
0`
1X
0\
0_
1Y
0Z
1d
1-
0S
0c
1Q
0P
1.
0f
1i
1h
1`
1^
0r
1e
1T
0-
1o
0g
0i
0.
1f
1U
0^
0o
1g
#68000
0!
0F
0G
1&
#68500
1!
1F
1G
0&
1E!
1S
1c
0Q
1P
0T
1-
0U
1^
#69000
0!
0F
0G
1&
#69500
1!
1F
1G
0&
1D!
0E!
1\
1_
0Y
1Z
0d
0-
0S
0c
1Q
0P
0h
0`
0^
1r
0e
1T
1d
1-
1i
1.
0f
1U
0r
1e
1^
1o
0g
0.
1f
0o
1g
#70000
0!
0F
0G
1&
#70500
1!
1F
1G
0&
1E!
1S
1c
0Q
1P
0T
0d
0-
0U
1r
0e
0^
1.
0f
1o
0g
#71000
0!
0F
0G
1&
#71500
1!
1F
1G
0&
1B!
0C!
0D!
0E!
1m
1k
1p
0i
0s
0.
0r
1e
0b
1h
1`
0X
0\
0_
1Y
0Z
1d
1-
0S
0c
1Q
0P
1q
0o
1t
1s
1.
1f
0p
1i
0`
1^
0e
1T
0-
1w
0t
1o
1g
0q
0f
1U
0^
1x
0w
0g
0x
#72000
0!
0F
0G
1&
#72500
1!
1F
1G
0&
1E!
1S
1c
0Q
1P
0T
1-
0U
1^
#73000
0!
0F
0G
1&
#73500
1!
1F
1G
0&
1D!
0E!
1\
1_
0Y
1Z
0d
0-
0S
0c
1Q
0P
1`
0^
1e
1T
1d
1-
1f
1U
0e
1^
1g
0f
0g
#74000
0!
0F
0G
1&
#74500
1!
1F
1G
0&
1E!
1S
1c
0Q
1P
0T
0d
0-
0U
1e
0^
1f
1g
#75000
0!
0F
0G
1&
#75500
1!
1F
1G
0&
1C!
0D!
0E!
1r
0e
1b
0h
0`
1X
0\
0_
1Y
0Z
1d
1-
0S
0c
1Q
0P
0s
0.
0f
1p
0i
1h
1`
1^
0r
1e
1T
0-
1t
0o
0g
1q
0p
1i
1s
1.
1f
1U
0^
1w
0q
1o
0t
1g
1x
0w
0x
#76000
0!
0F
0G
1&
#76500
1!
1F
1G
0&
1E!
1S
1c
0Q
1P
0T
1-
0U
1^
#77000
0!
0F
0G
1&
#77500
1!
1F
1G
0&
1D!
0E!
1\
1_
0Y
1Z
0d
0-
0S
0c
1Q
0P
0h
0`
0^
1r
0e
1T
1d
1-
1p
0i
0s
0.
0f
1U
0r
1e
1^
1q
0o
1t
0g
1s
1.
1f
1w
0t
1o
1g
1x
0w
0x
#78000
0!
0F
0G
1&
#78500
1!
1F
1G
0&
1E!
1S
1c
0Q
1P
0T
0d
0-
0U
1r
0e
0^
0s
0.
0f
1t
0o
0g
1w
1x
#79000
0!
0F
0G
1&
#79500
1!
1F
1G
0&
1A!
0B!
0C!
0D!
0E!
1v
1y
0t
0{
0q
14
0m
0k
0p
1i
1s
1.
0r
1e
0b
1h
1`
0X
0\
0_
1Y
0Z
1d
1-
0S
0c
1Q
0P
0w
1z
1|
1{
1q
1o
0y
1t
0.
1f
0i
0`
1^
0e
1T
0-
0x
1%!
0|
0z
1w
0o
1g
0f
1U
0^
0%!
1x
0g
#80000
0!
0F
0G
1&
#80500
1!
1F
1G
0&
1E!
1S
1c
0Q
1P
0T
1-
0U
1^
#81000
0!
0F
0G
1&
#81500
1!
1F
1G
0&
1D!
0E!
1\
1_
0Y
1Z
0d
0-
0S
0c
1Q
0P
1`
0^
1e
1T
1d
1-
1f
1U
0e
1^
1g
0f
0g
#82000
0!
0F
0G
1&
#82500
1!
1F
1G
0&
1E!
1S
1c
0Q
1P
0T
0d
0-
0U
1e
0^
1f
1g
#83000
0!
0F
0G
1&
#83500
1!
1F
1G
0&
1C!
0D!
0E!
1r
0e
1b
0h
0`
1X
0\
0_
1Y
0Z
1d
1-
0S
0c
1Q
0P
1.
0f
1i
1h
1`
1^
0r
1e
1T
0-
1o
0g
0i
0.
1f
1U
0^
0o
1g
#84000
0!
0F
0G
1&
#84500
1!
1F
1G
0&
1E!
1S
1c
0Q
1P
0T
1-
0U
1^
#85000
0!
0F
0G
1&
#85500
1!
1F
1G
0&
1D!
0E!
1\
1_
0Y
1Z
0d
0-
0S
0c
1Q
0P
0h
0`
0^
1r
0e
1T
1d
1-
1i
1.
0f
1U
0r
1e
1^
1o
0g
0.
1f
0o
1g
#86000
0!
0F
0G
1&
#86500
1!
1F
1G
0&
1E!
1S
1c
0Q
1P
0T
0d
0-
0U
1r
0e
0^
1.
0f
1o
0g
#87000
0!
0F
0G
1&
#87500
1!
1F
1G
0&
1B!
0C!
0D!
0E!
1m
1k
1p
0i
0s
0.
0r
1e
0b
1h
1`
0X
0\
0_
1Y
0Z
1d
1-
0S
0c
1Q
0P
0{
0q
0o
1y
0t
1s
1.
1f
0p
1i
0`
1^
0e
1T
0-
1|
1z
0w
0y
1t
1o
1g
1{
1q
0f
1U
0^
1%!
0x
0z
1w
0|
0g
0%!
1x
#88000
0!
0F
0G
1&
#88500
1!
1F
1G
0&
1E!
1S
1c
0Q
1P
0T
1-
0U
1^
#89000
0!
0F
0G
1&
#89500
1!
1F
1G
0&
1D!
0E!
1\
1_
0Y
1Z
0d
0-
0S
0c
1Q
0P
1`
0^
1e
1T
1d
1-
1f
1U
0e
1^
1g
0f
0g
#90000
0!
0F
0G
1&
#90500
1!
1F
1G
0&
1E!
1S
1c
0Q
1P
0T
0d
0-
0U
1e
0^
1f
1g
#91000
0!
0F
0G
1&
#91500
1!
1F
1G
0&
1C!
0D!
0E!
1r
0e
1b
0h
0`
1X
0\
0_
1Y
0Z
1d
1-
0S
0c
1Q
0P
0s
0.
0f
1p
0i
1h
1`
1^
0r
1e
1T
0-
1y
0t
0o
0g
0{
0q
0p
1i
1s
1.
1f
1U
0^
1z
0w
1|
1{
1q
1o
0y
1t
1g
1%!
0x
0|
0z
1w
0%!
1x
#92000
0!
0F
0G
1&
#92500
1!
1F
1G
0&
1E!
1S
1c
0Q
1P
0T
1-
0U
1^
#93000
0!
0F
0G
1&
#93500
1!
1F
1G
0&
1D!
0E!
1\
1_
0Y
1Z
0d
0-
0S
0c
1Q
0P
0h
0`
0^
1r
0e
1T
1d
1-
1p
0i
0s
0.
0f
1U
0r
1e
1^
0{
0q
0o
1y
0t
0g
1s
1.
1f
1|
1z
0w
0y
1t
1o
1g
1%!
0x
0z
1w
0%!
1x
#94000
0!
0F
0G
1&
#94500
1!
1F
1G
0&
1E!
1S
1c
0Q
1P
0T
0d
0-
0U
1r
0e
0^
0s
0.
0f
1y
0t
0o
0g
1z
0w
1%!
0x
#95000
0!
0F
0G
1&
